...........
----------------------------------------------------------------------
Ran 11 tests in 0.001s

OK
Name                                              Stmts   Miss Branch BrPart  Cover   Missing
---------------------------------------------------------------------------------------------
Collatz.py                                           38      0     16      1    98%   20->17
TestCollatz.py                                       50      0      0      0   100%
venv/lib/python3.8/site-packages/_virtualenv.py      81     80     26      1     2%   4-54, 57-130
---------------------------------------------------------------------------------------------
TOTAL                                               169     80     42      2    50%
