1 10 20
100 200 125
201 210 89
900 1000 174
50 100 119
100 150 122
1 25 24
25 50 112
10 20 21
7 4 17
21 40 112
58 71 108
90 21 116
270 280 92
890 720 179
20 50 112
540 561 137
241 292 123
580 610 132
372 430 134
99 120 114
630 653 145
790 832 135
567 610 132
1200 1210 71
1205 1220 164
745 750 91
280 300 118
300 320 131
330 350 126
2000 2025 157
9000 9020 141
200 240 128
540 550 137
215 218 115
735 740 140
71 73 116
58 72 108
28 43 110
84 56 116
938 946 130
1 2 2
5 20 21
43 46 30
35 35 14
21 22 16
34 65 113
46 28 110
61 43 113
17 35 112
38 57 113
20 57 113
56 47 113
67 49 113
75 29 116
48 57 113
59 38 113
65 59 108
820 774 153
1000 1010 143
5 2 8
29 47 110
66 20 113
45 40 110
58 38 113
57 20 113
56 75 116
49 84 116
37 50 110
84 58 116
56 90 116
74 47 116
115 121 96
64 27 113
75 86 111
57 48 113
66 67 28
43 51 105
97 92 119
32 37 27
29 41 110
270 289 105
841 852 60
790 729 153
58 39 113
980 971 143
573 543 137
208 239 128
740 752 140
489 500 142
620 634 132
362 375 95
746 762 140
482 495 142
861 874 179
920 943 174
689 701 127
465 485 129
129 143 122
167 146 117
825 840 135
793 839 135
463 425 129
603 578 119
